Comparing Tools and Workflows for Data Quality in Text Preprocessing
…
Finally, we will then load our artificial dataset from the Olympic summer games.

olympics_data <- read_csv("6.modified_olympics_tweets_RT.csv", locale = locale(encoding = "Latin1"))
olympics_data

# A tibble: 150 × 14
     no. tweet_id user_id timestamp        username tweet_text subtopic language
   <dbl>    <dbl>   <dbl> <chr>            <chr>    <chr>      <chr>    <chr>   
 1     1      226     139 09-08-2024 20:14 @kimber… RT The po… Swimmin… en      
 2     2    68257     133 31-07-2024 05:42 @colema… The fight… Doping … en      
 3     3    44351     197 06-08-2024 14:25 @joseph… RT THE JO… Gold Me… en      
 4     4    95759     170 08-08-2024 06:41 @randal… Quel chem… Gold Me… fr      
 5     5    11173     106 27-07-2024 18:19 @scott81 The inten… Wrestli… en      
 6     6    23334     177 28-07-2024 10:44 @ghall   RT We mus… Doping … en      
 7     7    49688     160 04-08-2024 00:40 @shanew… RT The cu… Gold Me… en      
 8     8    39066     196 01-08-2024 08:25 @kimgra… RT Cheeri… Maratho… en      
 9     9    81586     198 31-07-2024 21:03 @theres… RT Jede L… Athlete… de      
10    10    45338     134 03-08-2024 09:55 @kennet… What a ga… Basketb… en      
# ℹ 140 more rows
# ℹ 6 more variables: retweet_count <dbl>, like_count <dbl>, reply_count <dbl>,
#   quote_count <dbl>, urls <chr>, source <chr>
…
